{
    "editor": [
        {
            "icon": "",
            "key": "preGameScreen",
            "header": "PreGameScreen",
            "disabled": false,
            "fields": [
                {
                    "key": "titleText",
                    "header": "Title Text",
                    "type": "text"
                },
                {
                    "key": "titleTextSize",
                    "header": "Title text size",
                    "type": "range",
                    "options": {
                        "minValue": 20,
                        "maxValue": 40,
                        "stepSize": "1"
                    }
                },
                {
                    "key": "playButtonText",
                    "header": "Play Button Text",
                    "type": "text"
                },
                {
                    "key": "buttonTextColor",
                    "header": "Play Button Text Color",
                    "type": "color"
                },
                {
                    "key": "backgroundImage",
                    "header": "Background Image",
                    "type": "image"
                },
                {
                    "key": "backgroundMode",
                    "header": "Background image mode",
                    "type": "dropdown",
                    "options": [
                        "cover",
                        "fit",
                        "stretch"
                    ]
                },
                {
                    "key": "backgroundColor",
                    "header": "background color",
                    "type": "color"
                },
                {
                    "key": "titleImage",
                    "header": "Header Image",
                    "type": "image"
                },
                {
                    "key": "titleImageSize",
                    "header": "Header image size",
                    "type": "range",
                    "options": {
                        "minValue": 150,
                        "maxValue": 400,
                        "stepSize": "1"
                    }
                },
                {
                    "key": "cardColor",
                    "header": "Card Color",
                    "type": "color"
                },
                {
                    "key": "buttonColor",
                    "header": "Play Button Color",
                    "type": "color"
                },
                {
                    "key": "fontFamily",
                    "header": "Google Font Name",
                    "type": "dropdown",
                    "options": [
                        "Fredoka One",
                        "Overpass",
                        "Martel",
                        "Roboto",
                        "Noto Sans HK",
                        "Alfa Slab One",
                        "Staatliches",
                        "Patrick Hand",
                        "Changa",
                        "Do Hyeon",
                        "Bree Serif"
                    ]
                },
                {
                    "key": "showLeaderboardButton",
                    "header": "Show leaderboard button",
                    "type": "boolean"
                },
                {
                    "key": "leaderboardButtonText",
                    "header": "Leaderboard button text",
                    "type": "text"
                },
                {
                    "key": "showSoundButton",
                    "header": "Show sound button",
                    "type": "boolean"
                },
                {
                    "key": "soundEnabledIcon",
                    "type": "image",
                    "header": "Sound enabled icon"
                },
                {
                    "key": "soundDisabledIcon",
                    "type": "image",
                    "header": "Sound disabled icon"
                }
            ]
        },
        {
            "icon": "",
            "key": "settings",
            "header": "Game Settings",
            "disabled": false,
            "fields": [
                {
                    "key": "scoreboardFont",
                    "header": "Google font for scoreboard",
                    "type": "dropdown",
                    "options": [
                        "Fredoka One",
                        "Overpass",
                        "Martel",
                        "Roboto",
                        "Noto Sans HK",
                        "Alfa Slab One",
                        "Staatliches",
                        "Patrick Hand",
                        "Changa",
                        "Do Hyeon",
                        "Bree Serif"
                    ]
                },
                {
                    "key": "billboardBackground",
                    "header": "Billboard background image",
                    "type": "image"
                },
                {
                    "key": "stadium",
                    "header": "Stadium image",
                    "type": "image"
                },
                {
                    "key": "teams",
                    "type": "array",
                    "header": "Teams array",
                    "fields": [
                        {
                            "key": "team1",
                            "header": "Team",
                            "type": "array",
                            "fields": [
                                {
                                    "key": "logo",
                                    "header": "Team logo",
                                    "type": "image"
                                },
                                {
                                    "key": "name",
                                    "header": "Team name",
                                    "type": "text"
                                },
                                {
                                    "key": "players",
                                    "header": "Players",
                                    "type": "array",
                                    "fields": [
                                        {
                                            "key": "player1",
                                            "header": "Player",
                                            "type": "array",
                                            "fields": [
                                                {
                                                    "key": "name",
                                                    "header": "Player name",
                                                    "type": "text"
                                                },
                                                {
                                                    "key": "head",
                                                    "header": "Head image",
                                                    "type": "image"
                                                },
                                                {
                                                    "key": "body",
                                                    "header": "Shirt color",
                                                    "type": "color"
                                                },
                                                {
                                                    "key": "cap",
                                                    "header": "Cap color",
                                                    "type": "color"
                                                },
                                                {
                                                    "key": "showCap",
                                                    "header": "Show player cap",
                                                    "type": "boolean"
                                                },
                                                {
                                                    "key": "legs",
                                                    "header": "Legs color",
                                                    "type": "color"
                                                }
                                            ]
                                        }
                                    ]
                                }
                            ]
                        }
                    ]
                },
                {
                    "key": "timeGap",
                    "header": "Time between ball throw",
                    "type": "range",
                    "options": {
                        "minValue": 1,
                        "maxValue": 4,
                        "stepSize": 0.5
                    }
                },
                {
                    "key": "wickets",
                    "header": "Wickets color",
                    "type": "color"
                },
                {
                    "key": "textColor",
                    "header": "In Game Text Color",
                    "type": "color"
                },
                {
                    "key": "cricketBall",
                    "header": "Cricket ball",
                    "type": "image"
                },
                {
                    "key": "cricketBat",
                    "header": "Cricket bat",
                    "type": "image"
                },
                {
                    "key": "batColor",
                    "header": "Bat color",
                    "type": "color"
                },
                {
                    "key": "ads",
                    "header": "Billboard ad",
                    "type": "array",
                    "fields": [
                        {
                            "key": "ad",
                            "header": "Ad",
                            "type": "image"
                        }
                    ]
                },
                {
                    "key": "adTime",
                    "header": "Ad duration (in seconds)",
                    "type": "range",
                    "options": {
                        "maxValue": 30,
                        "minValue": 3,
                        "stepSize": 1
                    }
                },
                {
                    "key": "ballHit",
                    "header": "Ball hit sound",
                    "type": "sound"
                },
                {
                    "key": "ballThrow",
                    "header": "Ball throw sounds",
                    "type": "sound"
                },
                {
                    "key": "whistle",
                    "header": "whistle",
                    "type": "sound"
                },
                {
                    "key": "runSound",
                    "header": "6 runs sound",
                    "type": "sound"
                },
                {
                    "key": "theme",
                    "header": "Background Music",
                    "type": "sound"
                },
                {
                    "key": "volume",
                    "header": "Background music volume",
                    "type": "range",
                    "options": {
                        "minValue": 0,
                        "maxValue": 1,
                        "stepSize": "0.1"
                    }
                }
            ]
        },
        {
            "icon": "",
            "key": "postGameScreen",
            "header": "Post Game Screen",
            "disabled": false,
            "fields": [
                {
                    "key": "scoreText",
                    "header": "Text before score",
                    "type": "text"
                },
                {
                    "key": "textColor",
                    "header": "Text Color",
                    "type": "color"
                },
                {
                    "key": "buttonTextColor",
                    "header": "Button text color",
                    "type": "color"
                },
                {
                    "key": "cardColor",
                    "header": "Card Background Color",
                    "type": "color"
                },
                {
                    "key": "playButtonText",
                    "header": "Play again button text",
                    "type": "text"
                },
                {
                    "key": "buttonColor",
                    "header": "Buttons color",
                    "type": "color"
                },
                {
                    "key": "buttonTextColor",
                    "header": "Buttons text color",
                    "type": "color"
                },
                {
                    "key": "showText",
                    "header": "Show custom text",
                    "type": "boolean"
                },
                {
                    "key": "customText",
                    "header": "Custom text",
                    "type": "text"
                },
                {
                    "key": "submitName",
                    "header": "Show name field",
                    "type": "boolean"
                },
                {
                    "key": "submitEmail",
                    "header": "Show email field",
                    "type": "boolean"
                },
                {
                    "key": "submitScoreText",
                    "header": "Submit score button text",
                    "type": "text"
                },
                {
                    "key": "showLeadeboardButtonPostGameScreen",
                    "header": "Show Leadeboard Button",
                    "type": "boolean"
                },
                {
                    "key": "leaderboardButtonText",
                    "type": "text",
                    "header": "Leadeboard button text"
                },
                {
                    "key": "showCTA",
                    "header": "Show CTA Button",
                    "type": "boolean"
                },
                {
                    "key": "ctaText",
                    "header": "CTA text",
                    "type": "text"
                },
                {
                    "key": "ctaButtonText",
                    "header": "CTA button text",
                    "type": "text"
                },
                {
                    "key": "ctaUrl",
                    "header": "CTA Link",
                    "type": "text"
                }
            ]
        }
    ],
    "config": {
        "preGameScreen": {
            "titleText": "Crack It",
            "titleTextSize": 30,
            "playButtonText": "Play",
            "cardColor": "#ffffff",
            "buttonColor": "#000000",
            "buttonTextColor": "#ffffff",
            "backgroundImage": "http://frontend.apps.playcent.com/cc/assets/background.png",
            "backgroundMode": "stretch",
            "backgroundColor": "#ffffff",
            "titleImage": "http://frontend.apps.playcent.com/cc/assets/placeholder_logo.jpg",
            "titleImageSize": 200,
            "fontFamily": "Overpass",
            "showLeaderboardButton": true,
            "leaderboardButtonText": "Leadeboard",
            "showSoundButton": true,
            "soundEnabledIcon": "http://frontend.apps.playcent.com/cc/assets/sound_on.png",
            "soundDisabledIcon": "http://frontend.apps.playcent.com/cc/assets/sound_off.png"
        },
        "settings": {
            "scoreboardFont": "Fredoka One",
            "billboardBackground": "http://frontend.apps.playcent.com/cc/assets/scoreboard_background.png",
            "textColor": "#000",
            "stadium": "http://frontend.apps.playcent.com/cc/assets/cricket_stadium.png",
            "teams": {
                "team1": {
                    "name": "Team One",
                    "logo": "http://frontend.apps.playcent.com/cc/assets/apple.png",
                    "players": {
                        "player1": {
                            "name": "P1T1",
                            "head": "http://frontend.apps.playcent.com/cc/assets/player_head.png",
                            "body": "#9DCEBA",
                            "cap": "#505750",
                            "legs": "#808080",
                            "showCap": true
                        },
                        "player2": {
                            "name": "P2T1",
                            "head": "http://frontend.apps.playcent.com/cc/assets/player_head.png",
                            "body": "#9DCEBA",
                            "cap": "#505750",
                            "legs": "#808080",
                            "showCap": false
                        }
                    }
                },
                "team2": {
                    "name": "Team Two",
                    "logo": "http://frontend.apps.playcent.com/cc/assets/banana.png",
                    "players": {
                        "player1": {
                            "name": "P1T2",
                            "head": "http://frontend.apps.playcent.com/cc/assets/player_head.png",
                            "body": "#9DCEBA",
                            "cap": "#505750",
                            "legs": "#808080",
                            "showCap": true
                        },
                        "player2": {
                            "name": "P2T2",
                            "head": "http://frontend.apps.playcent.com/cc/assets/player_head.png",
                            "body": "#9DCEBA",
                            "cap": "#505750",
                            "legs": "#808080",
                            "showCap": false
                        }
                    }
                },
                "team3": {
                    "name": "Team Three",
                    "logo": "http://frontend.apps.playcent.com/cc/assets/pear.png",
                    "players": {
                        "player1": {
                            "name": "P1T3",
                            "head": "http://frontend.apps.playcent.com/cc/assets/player_head.png",
                            "body": "#9DCEBA",
                            "cap": "#505750",
                            "legs": "#808080"
                        },
                        "player2": {
                            "name": "P2T3",
                            "head": "http://frontend.apps.playcent.com/cc/assets/player_head.png",
                            "body": "#9DCEBA",
                            "cap": "#505750",
                            "legs": "#808080"
                        }
                    }
                }
            },
            "timeGap": 2,
            "wickets": "#e8dfc5",
            "cricketBall": "http://frontend.apps.playcent.com/cc/assets/cricket_ball.png",
            "cricketBat": "http://frontend.apps.playcent.com/cc/assets/cricket_bat.png",
            "batColor": "#ffffff",
            "ads": {
                "ad1": "http://frontend.apps.playcent.com/cc/assets/banana.png",
                "ad2": "http://frontend.apps.playcent.com/cc/assets/idle.png",
                "ad3": "http://frontend.apps.playcent.com/cc/assets/ad.png"
            },
            "adTime": 3,
            "ballHit": "http://frontend.apps.playcent.com/cc/assets/ball_hit.wav",
            "whistle": "http://frontend.apps.playcent.com/cc/assets/whistle.wav",
            "runSound": "http://frontend.apps.playcent.com/cc/assets/coin.wav",
            "ballThrow": "http://frontend.apps.playcent.com/cc/assets/ball_throw.wav",
            "theme": "http://frontend.apps.playcent.com/cc/assets/theme.mp3",
            "volume": "0.3"
        },
        "postGameScreen": {
            "scoreText": "Your score is: ",
            "playButtonText": "Play Again",
            "buttonColor": "#000000",
            "cardColor": "#ffffff",
            "textColor": "#000000",
            "buttonTextColor": "#ffffff",
            "showLeadeboardButtonPostGameScreen": true,
            "submitScoreText": "Submit score",
            "leaderboardButtonText": "Leaderboard",
            "showText": true,
            "customText": "Hello world",
            "submitName": true,
            "submitEmail": true,
            "showCTA": true,
            "ctaText": "Check out our page for more",
            "ctaButtonText": "Go to Playcent",
            "ctaUrl": "http://playcent.com/browser/#/home"
        }
    }
}